^C:\Users\Boyang\documents\visual studio 2015\Projects\CheapSkate\CheapSkate\CheapSkate.vcxproj
C:\Users\Boyang\documents\visual studio 2015\Projects\CheapSkate\CheapSkate\Debug\CheapSkate.MyForm.resources
^C:\Users\Boyang\documents\visual studio 2015\Projects\CheapSkate\CheapSkate\CheapSkate.vcxproj
C:\Users\Boyang\documents\visual studio 2015\Projects\CheapSkate\CheapSkate\Debug\CheapSkate.MyForm.resources
^C:\Users\Boyang\documents\visual studio 2015\Projects\CheapSkate\CheapSkate\CheapSkate.vcxproj
C:\Users\Boyang\documents\visual studio 2015\Projects\CheapSkate\CheapSkate\Debug\CheapSkate.MyForm.resources
^C:\Users\Boyang\documents\visual studio 2015\Projects\CheapSkate\CheapSkate\CheapSkate.vcxproj
C:\Users\Boyang\documents\visual studio 2015\Projects\CheapSkate\CheapSkate\Debug\CheapSkate.MyForm.resources
^C:\Users\Boyang\documents\visual studio 2015\Projects\CheapSkate\CheapSkate\CheapSkate.vcxproj
C:\Users\Boyang\documents\visual studio 2015\Projects\CheapSkate\CheapSkate\Debug\CheapSkate.MyForm.resources
^C:\Users\Boyang\documents\visual studio 2015\Projects\CheapSkate\CheapSkate\CheapSkate.vcxproj
C:\Users\Boyang\documents\visual studio 2015\Projects\CheapSkate\CheapSkate\Debug\CheapSkate.MyForm.resources
^C:\Users\Boyang\documents\visual studio 2015\Projects\CheapSkate\CheapSkate\CheapSkate.vcxproj
C:\Users\Boyang\documents\visual studio 2015\Projects\CheapSkate\CheapSkate\Debug\CheapSkate.MyForm.resources
^C:\Users\Boyang\documents\visual studio 2015\Projects\CheapSkate\CheapSkate\CheapSkate.vcxproj
C:\Users\Boyang\documents\visual studio 2015\Projects\CheapSkate\CheapSkate\Debug\CheapSkate.MyForm.resources
^C:\Users\Boyang\documents\visual studio 2015\Projects\CheapSkate\CheapSkate\CheapSkate.vcxproj
C:\Users\Boyang\documents\visual studio 2015\Projects\CheapSkate\CheapSkate\Debug\CheapSkate.MyForm.resources
^C:\Users\Boyang\documents\visual studio 2015\Projects\CheapSkate\CheapSkate\CheapSkate.vcxproj
C:\Users\Boyang\documents\visual studio 2015\Projects\CheapSkate\CheapSkate\Debug\CheapSkate.MyForm.resources
^C:\Users\Boyang\documents\visual studio 2015\Projects\CheapSkate\CheapSkate\CheapSkate.vcxproj
C:\Users\Boyang\documents\visual studio 2015\Projects\CheapSkate\CheapSkate\Debug\CheapSkate.MyForm.resources
^C:\Users\Boyang\documents\visual studio 2015\Projects\CheapSkate\CheapSkate\CheapSkate.vcxproj
C:\Users\Boyang\documents\visual studio 2015\Projects\CheapSkate\CheapSkate\Debug\CheapSkate.MyForm.resources
^C:\Users\Boyang\documents\visual studio 2015\Projects\CheapSkate\CheapSkate\CheapSkate.vcxproj
C:\Users\Boyang\documents\visual studio 2015\Projects\CheapSkate\CheapSkate\Debug\CheapSkate.MyForm.resources
^C:\Users\Boyang\documents\visual studio 2015\Projects\CheapSkate\CheapSkate\CheapSkate.vcxproj
C:\Users\Boyang\documents\visual studio 2015\Projects\CheapSkate\CheapSkate\Debug\CheapSkate.MyForm.resources
^C:\Users\Boyang\documents\visual studio 2015\Projects\CheapSkate\CheapSkate\CheapSkate.vcxproj
C:\Users\Boyang\documents\visual studio 2015\Projects\CheapSkate\CheapSkate\Debug\CheapSkate.MyForm.resources
^C:\Users\Boyang\documents\visual studio 2015\Projects\CheapSkate\CheapSkate\CheapSkate.vcxproj
C:\Users\Boyang\documents\visual studio 2015\Projects\CheapSkate\CheapSkate\Debug\CheapSkate.MyForm.resources
^C:\Users\Boyang\documents\visual studio 2015\Projects\CheapSkate\CheapSkate\CheapSkate.vcxproj
C:\Users\Boyang\documents\visual studio 2015\Projects\CheapSkate\CheapSkate\Debug\CheapSkate.MyForm.resources
^C:\Users\Boyang\documents\visual studio 2015\Projects\CheapSkate\CheapSkate\CheapSkate.vcxproj
C:\Users\Boyang\documents\visual studio 2015\Projects\CheapSkate\CheapSkate\Debug\CheapSkate.MyForm.resources
^C:\Users\Boyang\documents\visual studio 2015\Projects\CheapSkate\CheapSkate\CheapSkate.vcxproj
C:\Users\Boyang\documents\visual studio 2015\Projects\CheapSkate\CheapSkate\Debug\CheapSkate.MyForm.resources
^C:\Users\Boyang\documents\visual studio 2015\Projects\CheapSkate\CheapSkate\CheapSkate.vcxproj
C:\Users\Boyang\documents\visual studio 2015\Projects\CheapSkate\CheapSkate\Debug\CheapSkate.MyForm.resources
^C:\Users\Boyang\documents\visual studio 2015\Projects\CheapSkate\CheapSkate\CheapSkate.vcxproj
C:\Users\Boyang\documents\visual studio 2015\Projects\CheapSkate\CheapSkate\Debug\CheapSkate.MyForm.resources
^C:\Users\Boyang\documents\visual studio 2015\Projects\CheapSkate\CheapSkate\CheapSkate.vcxproj
C:\Users\Boyang\documents\visual studio 2015\Projects\CheapSkate\CheapSkate\Debug\CheapSkate.MyForm.resources
^C:\Users\Boyang\documents\visual studio 2015\Projects\CheapSkate\CheapSkate\CheapSkate.vcxproj
C:\Users\Boyang\documents\visual studio 2015\Projects\CheapSkate\CheapSkate\Debug\CheapSkate.MyForm.resources
^C:\Users\Boyang\documents\visual studio 2015\Projects\CheapSkate\CheapSkate\CheapSkate.vcxproj
C:\Users\Boyang\documents\visual studio 2015\Projects\CheapSkate\CheapSkate\Debug\CheapSkate.MyForm.resources
^C:\Users\Boyang\documents\visual studio 2015\Projects\CheapSkate\CheapSkate\CheapSkate.vcxproj
C:\Users\Boyang\documents\visual studio 2015\Projects\CheapSkate\CheapSkate\Debug\CheapSkate.MyForm.resources
^C:\Users\Boyang\documents\visual studio 2015\Projects\CheapSkate\CheapSkate\CheapSkate.vcxproj
C:\Users\Boyang\documents\visual studio 2015\Projects\CheapSkate\CheapSkate\Debug\CheapSkate.MyForm.resources
^C:\Users\Boyang\documents\visual studio 2015\Projects\CheapSkate\CheapSkate\CheapSkate.vcxproj
C:\Users\Boyang\documents\visual studio 2015\Projects\CheapSkate\CheapSkate\Debug\CheapSkate.MyForm.resources
^C:\Users\Boyang\documents\visual studio 2015\Projects\CheapSkate\CheapSkate\CheapSkate.vcxproj
C:\Users\Boyang\documents\visual studio 2015\Projects\CheapSkate\CheapSkate\Debug\CheapSkate.MyForm.resources
^C:\Users\Boyang\documents\visual studio 2015\Projects\CheapSkate\CheapSkate\CheapSkate.vcxproj
C:\Users\Boyang\documents\visual studio 2015\Projects\CheapSkate\CheapSkate\Debug\CheapSkate.MyForm.resources
^C:\Users\Boyang\documents\visual studio 2015\Projects\CheapSkate\CheapSkate\CheapSkate.vcxproj
C:\Users\Boyang\documents\visual studio 2015\Projects\CheapSkate\CheapSkate\Debug\CheapSkate.MyForm.resources
^C:\Users\Boyang\documents\visual studio 2015\Projects\CheapSkate\CheapSkate\CheapSkate.vcxproj
C:\Users\Boyang\documents\visual studio 2015\Projects\CheapSkate\CheapSkate\Debug\CheapSkate.MyForm.resources
^C:\Users\Boyang\documents\visual studio 2015\Projects\CheapSkate\CheapSkate\CheapSkate.vcxproj
C:\Users\Boyang\documents\visual studio 2015\Projects\CheapSkate\CheapSkate\Debug\CheapSkate.MyForm.resources
^C:\Users\Boyang\documents\visual studio 2015\Projects\CheapSkate\CheapSkate\CheapSkate.vcxproj
C:\Users\Boyang\documents\visual studio 2015\Projects\CheapSkate\CheapSkate\Debug\CheapSkate.MyForm.resources
^C:\Users\Boyang\documents\visual studio 2015\Projects\CheapSkate\CheapSkate\CheapSkate.vcxproj
C:\Users\Boyang\documents\visual studio 2015\Projects\CheapSkate\CheapSkate\Debug\CheapSkate.MyForm.resources
^C:\Users\Boyang\documents\visual studio 2015\Projects\CheapSkate\CheapSkate\CheapSkate.vcxproj
C:\Users\Boyang\documents\visual studio 2015\Projects\CheapSkate\CheapSkate\Debug\CheapSkate.MyForm.resources
^C:\Users\Boyang\documents\visual studio 2015\Projects\CheapSkate\CheapSkate\CheapSkate.vcxproj
C:\Users\Boyang\documents\visual studio 2015\Projects\CheapSkate\CheapSkate\Debug\CheapSkate.MyForm.resources
^C:\Users\Boyang\documents\visual studio 2015\Projects\CheapSkate\CheapSkate\CheapSkate.vcxproj
C:\Users\Boyang\documents\visual studio 2015\Projects\CheapSkate\CheapSkate\Debug\CheapSkate.MyForm.resources
^C:\Users\Boyang\documents\visual studio 2015\Projects\CheapSkate\CheapSkate\CheapSkate.vcxproj
C:\Users\Boyang\documents\visual studio 2015\Projects\CheapSkate\CheapSkate\Debug\CheapSkate.MyForm.resources
^C:\Users\Boyang\documents\visual studio 2015\Projects\CheapSkate\CheapSkate\CheapSkate.vcxproj
C:\Users\Boyang\documents\visual studio 2015\Projects\CheapSkate\CheapSkate\Debug\CheapSkate.MyForm.resources
^C:\Users\Boyang\documents\visual studio 2015\Projects\CheapSkate\CheapSkate\CheapSkate.vcxproj
C:\Users\Boyang\documents\visual studio 2015\Projects\CheapSkate\CheapSkate\Debug\CheapSkate.MyForm.resources
^C:\Users\Boyang\documents\visual studio 2015\Projects\CheapSkate\CheapSkate\CheapSkate.vcxproj
C:\Users\Boyang\documents\visual studio 2015\Projects\CheapSkate\CheapSkate\Debug\CheapSkate.MyForm.resources
^C:\Users\Boyang\documents\visual studio 2015\Projects\CheapSkate\CheapSkate\CheapSkate.vcxproj
C:\Users\Boyang\documents\visual studio 2015\Projects\CheapSkate\CheapSkate\Debug\CheapSkate.MyForm.resources
^C:\Users\Boyang\documents\visual studio 2015\Projects\CheapSkate\CheapSkate\CheapSkate.vcxproj
C:\Users\Boyang\documents\visual studio 2015\Projects\CheapSkate\CheapSkate\Debug\CheapSkate.MyForm.resources
^C:\Users\Boyang\documents\visual studio 2015\Projects\CheapSkate\CheapSkate\CheapSkate.vcxproj
C:\Users\Boyang\documents\visual studio 2015\Projects\CheapSkate\CheapSkate\Debug\CheapSkate.MyForm.resources
^C:\Users\Boyang\documents\visual studio 2015\Projects\CheapSkate\CheapSkate\CheapSkate.vcxproj
C:\Users\Boyang\documents\visual studio 2015\Projects\CheapSkate\CheapSkate\Debug\CheapSkate.MyForm.resources
^C:\Users\Boyang\documents\visual studio 2015\Projects\CheapSkate\CheapSkate\CheapSkate.vcxproj
C:\Users\Boyang\documents\visual studio 2015\Projects\CheapSkate\CheapSkate\Debug\CheapSkate.MyForm.resources
^C:\Users\Boyang\documents\visual studio 2015\Projects\CheapSkate\CheapSkate\CheapSkate.vcxproj
C:\Users\Boyang\documents\visual studio 2015\Projects\CheapSkate\CheapSkate\Debug\CheapSkate.MyForm.resources
^C:\Users\Boyang\documents\visual studio 2015\Projects\CheapSkate\CheapSkate\CheapSkate.vcxproj
C:\Users\Boyang\documents\visual studio 2015\Projects\CheapSkate\CheapSkate\Debug\CheapSkate.MyForm.resources
^C:\Users\Boyang\documents\visual studio 2015\Projects\CheapSkate\CheapSkate\CheapSkate.vcxproj
C:\Users\Boyang\documents\visual studio 2015\Projects\CheapSkate\CheapSkate\Debug\CheapSkate.MyForm.resources
^C:\Users\Boyang\documents\visual studio 2015\Projects\CheapSkate\CheapSkate\CheapSkate.vcxproj
C:\Users\Boyang\documents\visual studio 2015\Projects\CheapSkate\CheapSkate\Debug\CheapSkate.MyForm.resources
^C:\Users\Boyang\documents\visual studio 2015\Projects\CheapSkate\CheapSkate\CheapSkate.vcxproj
C:\Users\Boyang\documents\visual studio 2015\Projects\CheapSkate\CheapSkate\Debug\CheapSkate.MyForm.resources
^C:\Users\Boyang\documents\visual studio 2015\Projects\CheapSkate\CheapSkate\CheapSkate.vcxproj
C:\Users\Boyang\documents\visual studio 2015\Projects\CheapSkate\CheapSkate\Debug\CheapSkate.MyForm.resources
^C:\Users\Boyang\documents\visual studio 2015\Projects\CheapSkate\CheapSkate\CheapSkate.vcxproj
C:\Users\Boyang\documents\visual studio 2015\Projects\CheapSkate\CheapSkate\Debug\CheapSkate.MyForm.resources
^C:\Users\Boyang\documents\visual studio 2015\Projects\CheapSkate\CheapSkate\CheapSkate.vcxproj
C:\Users\Boyang\documents\visual studio 2015\Projects\CheapSkate\CheapSkate\Debug\CheapSkate.MyForm.resources
^C:\Users\Boyang\documents\visual studio 2015\Projects\CheapSkate\CheapSkate\CheapSkate.vcxproj
C:\Users\Boyang\documents\visual studio 2015\Projects\CheapSkate\CheapSkate\Debug\CheapSkate.MyForm.resources
^C:\Users\Boyang\documents\visual studio 2015\Projects\CheapSkate\CheapSkate\CheapSkate.vcxproj
C:\Users\Boyang\documents\visual studio 2015\Projects\CheapSkate\CheapSkate\Debug\CheapSkate.MyForm.resources
^C:\Users\Boyang\documents\visual studio 2015\Projects\CheapSkate\CheapSkate\CheapSkate.vcxproj
C:\Users\Boyang\documents\visual studio 2015\Projects\CheapSkate\CheapSkate\Debug\CheapSkate.MyForm.resources
^C:\Users\Boyang\documents\visual studio 2015\Projects\CheapSkate\CheapSkate\CheapSkate.vcxproj
C:\Users\Boyang\documents\visual studio 2015\Projects\CheapSkate\CheapSkate\Debug\CheapSkate.MyForm.resources
^C:\Users\Boyang\documents\visual studio 2015\Projects\CheapSkate\CheapSkate\CheapSkate.vcxproj
C:\Users\Boyang\documents\visual studio 2015\Projects\CheapSkate\CheapSkate\Debug\CheapSkate.MyForm.resources
^C:\Users\Boyang\documents\visual studio 2015\Projects\CheapSkate\CheapSkate\CheapSkate.vcxproj
C:\Users\Boyang\documents\visual studio 2015\Projects\CheapSkate\CheapSkate\Debug\CheapSkate.MyForm.resources
^C:\Users\Boyang\documents\visual studio 2015\Projects\CheapSkate\CheapSkate\CheapSkate.vcxproj
C:\Users\Boyang\documents\visual studio 2015\Projects\CheapSkate\CheapSkate\Debug\CheapSkate.MyForm.resources
^C:\Users\Boyang\documents\visual studio 2015\Projects\CheapSkate\CheapSkate\CheapSkate.vcxproj
C:\Users\Boyang\documents\visual studio 2015\Projects\CheapSkate\CheapSkate\Debug\CheapSkate.MyForm.resources
^C:\Users\Boyang\documents\visual studio 2015\Projects\CheapSkate\CheapSkate\CheapSkate.vcxproj
C:\Users\Boyang\documents\visual studio 2015\Projects\CheapSkate\CheapSkate\Debug\CheapSkate.MyForm.resources
^C:\Users\Boyang\documents\visual studio 2015\Projects\CheapSkate\CheapSkate\CheapSkate.vcxproj
C:\Users\Boyang\documents\visual studio 2015\Projects\CheapSkate\CheapSkate\Debug\CheapSkate.MyForm.resources
^C:\Users\Boyang\documents\visual studio 2015\Projects\CheapSkate\CheapSkate\CheapSkate.vcxproj
C:\Users\Boyang\documents\visual studio 2015\Projects\CheapSkate\CheapSkate\Debug\CheapSkate.MyForm.resources
^C:\Users\Boyang\documents\visual studio 2015\Projects\CheapSkate\CheapSkate\CheapSkate.vcxproj
C:\Users\Boyang\documents\visual studio 2015\Projects\CheapSkate\CheapSkate\Debug\CheapSkate.MyForm.resources
^C:\Users\Boyang\documents\visual studio 2015\Projects\CheapSkate\CheapSkate\CheapSkate.vcxproj
C:\Users\Boyang\documents\visual studio 2015\Projects\CheapSkate\CheapSkate\Debug\CheapSkate.MyForm.resources
^C:\Users\Boyang\documents\visual studio 2015\Projects\CheapSkate\CheapSkate\CheapSkate.vcxproj
C:\Users\Boyang\documents\visual studio 2015\Projects\CheapSkate\CheapSkate\Debug\CheapSkate.MyForm.resources
^C:\Users\Boyang\documents\visual studio 2015\Projects\CheapSkate\CheapSkate\CheapSkate.vcxproj
C:\Users\Boyang\documents\visual studio 2015\Projects\CheapSkate\CheapSkate\Debug\CheapSkate.MyForm.resources
^C:\Users\Boyang\documents\visual studio 2015\Projects\CheapSkate\CheapSkate\CheapSkate.vcxproj
C:\Users\Boyang\documents\visual studio 2015\Projects\CheapSkate\CheapSkate\Debug\CheapSkate.MyForm.resources
^C:\Users\Boyang\documents\visual studio 2015\Projects\CheapSkate\CheapSkate\CheapSkate.vcxproj
C:\Users\Boyang\documents\visual studio 2015\Projects\CheapSkate\CheapSkate\Debug\CheapSkate.MyForm.resources
^C:\Users\Boyang\documents\visual studio 2015\Projects\CheapSkate\CheapSkate\CheapSkate.vcxproj
C:\Users\Boyang\documents\visual studio 2015\Projects\CheapSkate\CheapSkate\Debug\CheapSkate.MyForm.resources
^C:\Users\Boyang\documents\visual studio 2015\Projects\CheapSkate\CheapSkate\CheapSkate.vcxproj
C:\Users\Boyang\documents\visual studio 2015\Projects\CheapSkate\CheapSkate\Debug\CheapSkate.MyForm.resources
^C:\Users\Boyang\documents\visual studio 2015\Projects\CheapSkate\CheapSkate\CheapSkate.vcxproj
C:\Users\Boyang\documents\visual studio 2015\Projects\CheapSkate\CheapSkate\Debug\CheapSkate.MyForm.resources
^C:\Users\Boyang\documents\visual studio 2015\Projects\CheapSkate\CheapSkate\CheapSkate.vcxproj
C:\Users\Boyang\documents\visual studio 2015\Projects\CheapSkate\CheapSkate\Debug\CheapSkate.MyForm.resources
^C:\Users\Boyang\documents\visual studio 2015\Projects\CheapSkate\CheapSkate\CheapSkate.vcxproj
C:\Users\Boyang\documents\visual studio 2015\Projects\CheapSkate\CheapSkate\Debug\CheapSkate.MyForm.resources
^C:\Users\Boyang\documents\visual studio 2015\Projects\CheapSkate\CheapSkate\CheapSkate.vcxproj
C:\Users\Boyang\documents\visual studio 2015\Projects\CheapSkate\CheapSkate\Debug\CheapSkate.MyForm.resources
^C:\Users\Boyang\documents\visual studio 2015\Projects\CheapSkate\CheapSkate\CheapSkate.vcxproj
C:\Users\Boyang\documents\visual studio 2015\Projects\CheapSkate\CheapSkate\Debug\CheapSkate.MyForm.resources
^C:\Users\Boyang\documents\visual studio 2015\Projects\CheapSkate\CheapSkate\CheapSkate.vcxproj
C:\Users\Boyang\documents\visual studio 2015\Projects\CheapSkate\CheapSkate\Debug\CheapSkate.MyForm.resources
^C:\Users\Boyang\documents\visual studio 2015\Projects\CheapSkate\CheapSkate\CheapSkate.vcxproj
C:\Users\Boyang\documents\visual studio 2015\Projects\CheapSkate\CheapSkate\Debug\CheapSkate.MyForm.resources
^C:\Users\Boyang\documents\visual studio 2015\Projects\CheapSkate\CheapSkate\CheapSkate.vcxproj
C:\Users\Boyang\documents\visual studio 2015\Projects\CheapSkate\CheapSkate\Debug\CheapSkate.MyForm.resources
^C:\Users\Boyang\documents\visual studio 2015\Projects\CheapSkate\CheapSkate\CheapSkate.vcxproj
C:\Users\Boyang\documents\visual studio 2015\Projects\CheapSkate\CheapSkate\Debug\CheapSkate.MyForm.resources
^C:\Users\Boyang\documents\visual studio 2015\Projects\CheapSkate\CheapSkate\CheapSkate.vcxproj
C:\Users\Boyang\documents\visual studio 2015\Projects\CheapSkate\CheapSkate\Debug\CheapSkate.MyForm.resources
^C:\Users\Boyang\documents\visual studio 2015\Projects\CheapSkate\CheapSkate\CheapSkate.vcxproj
C:\Users\Boyang\documents\visual studio 2015\Projects\CheapSkate\CheapSkate\Debug\CheapSkate.MyForm.resources
^C:\Users\Boyang\documents\visual studio 2015\Projects\CheapSkate\CheapSkate\CheapSkate.vcxproj
C:\Users\Boyang\documents\visual studio 2015\Projects\CheapSkate\CheapSkate\Debug\CheapSkate.MyForm.resources
^C:\Users\Boyang\documents\visual studio 2015\Projects\CheapSkate\CheapSkate\CheapSkate.vcxproj
C:\Users\Boyang\documents\visual studio 2015\Projects\CheapSkate\CheapSkate\Debug\CheapSkate.MyForm.resources
^C:\Users\Boyang\documents\visual studio 2015\Projects\CheapSkate\CheapSkate\CheapSkate.vcxproj
C:\Users\Boyang\documents\visual studio 2015\Projects\CheapSkate\CheapSkate\Debug\CheapSkate.MyForm.resources
^C:\Users\Boyang\documents\visual studio 2015\Projects\CheapSkate\CheapSkate\CheapSkate.vcxproj
C:\Users\Boyang\documents\visual studio 2015\Projects\CheapSkate\CheapSkate\Debug\CheapSkate.MyForm.resources
^C:\Users\Boyang\documents\visual studio 2015\Projects\CheapSkate\CheapSkate\CheapSkate.vcxproj
C:\Users\Boyang\documents\visual studio 2015\Projects\CheapSkate\CheapSkate\Debug\CheapSkate.MyForm.resources
^C:\Users\Boyang\documents\visual studio 2015\Projects\CheapSkate\CheapSkate\CheapSkate.vcxproj
C:\Users\Boyang\documents\visual studio 2015\Projects\CheapSkate\CheapSkate\Debug\CheapSkate.MyForm.resources
^C:\Users\Boyang\documents\visual studio 2015\Projects\CheapSkate\CheapSkate\CheapSkate.vcxproj
C:\Users\Boyang\documents\visual studio 2015\Projects\CheapSkate\CheapSkate\Debug\CheapSkate.MyForm.resources
^C:\Users\Boyang\documents\visual studio 2015\Projects\CheapSkate\CheapSkate\CheapSkate.vcxproj
C:\Users\Boyang\documents\visual studio 2015\Projects\CheapSkate\CheapSkate\Debug\CheapSkate.MyForm.resources
^C:\Users\Boyang\documents\visual studio 2015\Projects\CheapSkate\CheapSkate\CheapSkate.vcxproj
C:\Users\Boyang\documents\visual studio 2015\Projects\CheapSkate\CheapSkate\Debug\CheapSkate.MyForm.resources
^C:\Users\Boyang\documents\visual studio 2015\Projects\CheapSkate\CheapSkate\CheapSkate.vcxproj
C:\Users\Boyang\documents\visual studio 2015\Projects\CheapSkate\CheapSkate\Debug\CheapSkate.MyForm.resources
^C:\Users\Boyang\documents\visual studio 2015\Projects\CheapSkate\CheapSkate\CheapSkate.vcxproj
C:\Users\Boyang\documents\visual studio 2015\Projects\CheapSkate\CheapSkate\Debug\CheapSkate.MyForm.resources
^C:\Users\Boyang\documents\visual studio 2015\Projects\CheapSkate\CheapSkate\CheapSkate.vcxproj
C:\Users\Boyang\documents\visual studio 2015\Projects\CheapSkate\CheapSkate\Debug\CheapSkate.MyForm.resources
^C:\Users\Boyang\documents\visual studio 2015\Projects\CheapSkate\CheapSkate\CheapSkate.vcxproj
C:\Users\Boyang\documents\visual studio 2015\Projects\CheapSkate\CheapSkate\Debug\CheapSkate.MyForm.resources
^C:\Users\Boyang\documents\visual studio 2015\Projects\CheapSkate\CheapSkate\CheapSkate.vcxproj
C:\Users\Boyang\documents\visual studio 2015\Projects\CheapSkate\CheapSkate\Debug\CheapSkate.MyForm.resources
^C:\Users\Boyang\documents\visual studio 2015\Projects\CheapSkate\CheapSkate\CheapSkate.vcxproj
C:\Users\Boyang\documents\visual studio 2015\Projects\CheapSkate\CheapSkate\Debug\CheapSkate.MyForm.resources
^C:\Users\Boyang\documents\visual studio 2015\Projects\CheapSkate\CheapSkate\CheapSkate.vcxproj
C:\Users\Boyang\documents\visual studio 2015\Projects\CheapSkate\CheapSkate\Debug\CheapSkate.MyForm.resources
^C:\Users\Boyang\documents\visual studio 2015\Projects\CheapSkate\CheapSkate\CheapSkate.vcxproj
C:\Users\Boyang\documents\visual studio 2015\Projects\CheapSkate\CheapSkate\Debug\CheapSkate.MyForm.resources
^C:\Users\Boyang\documents\visual studio 2015\Projects\CheapSkate\CheapSkate\CheapSkate.vcxproj
C:\Users\Boyang\documents\visual studio 2015\Projects\CheapSkate\CheapSkate\Debug\CheapSkate.MyForm.resources
^C:\Users\Boyang\documents\visual studio 2015\Projects\CheapSkate\CheapSkate\CheapSkate.vcxproj
C:\Users\Boyang\documents\visual studio 2015\Projects\CheapSkate\CheapSkate\Debug\CheapSkate.MyForm.resources
^C:\Users\Boyang\documents\visual studio 2015\Projects\CheapSkate\CheapSkate\CheapSkate.vcxproj
C:\Users\Boyang\documents\visual studio 2015\Projects\CheapSkate\CheapSkate\Debug\CheapSkate.MyForm.resources
^C:\Users\Boyang\documents\visual studio 2015\Projects\CheapSkate\CheapSkate\CheapSkate.vcxproj
C:\Users\Boyang\documents\visual studio 2015\Projects\CheapSkate\CheapSkate\Debug\CheapSkate.MyForm.resources
^C:\Users\Boyang\documents\visual studio 2015\Projects\CheapSkate\CheapSkate\CheapSkate.vcxproj
C:\Users\Boyang\documents\visual studio 2015\Projects\CheapSkate\CheapSkate\Debug\CheapSkate.MyForm.resources
^C:\Users\Boyang\documents\visual studio 2015\Projects\CheapSkate\CheapSkate\CheapSkate.vcxproj
C:\Users\Boyang\documents\visual studio 2015\Projects\CheapSkate\CheapSkate\Debug\CheapSkate.MyForm.resources
^C:\Users\Boyang\documents\visual studio 2015\Projects\CheapSkate\CheapSkate\CheapSkate.vcxproj
C:\Users\Boyang\documents\visual studio 2015\Projects\CheapSkate\CheapSkate\Debug\CheapSkate.MyForm.resources
^C:\Users\Boyang\documents\visual studio 2015\Projects\CheapSkate\CheapSkate\CheapSkate.vcxproj
C:\Users\Boyang\documents\visual studio 2015\Projects\CheapSkate\CheapSkate\Debug\CheapSkate.MyForm.resources
^C:\Users\Boyang\documents\visual studio 2015\Projects\CheapSkate\CheapSkate\CheapSkate.vcxproj
C:\Users\Boyang\documents\visual studio 2015\Projects\CheapSkate\CheapSkate\Debug\CheapSkate.MyForm.resources
^C:\Users\Boyang\documents\visual studio 2015\Projects\CheapSkate\CheapSkate\CheapSkate.vcxproj
C:\Users\Boyang\documents\visual studio 2015\Projects\CheapSkate\CheapSkate\Debug\CheapSkate.MyForm.resources
^C:\Users\Boyang\documents\visual studio 2015\Projects\CheapSkate\CheapSkate\CheapSkate.vcxproj
C:\Users\Boyang\documents\visual studio 2015\Projects\CheapSkate\CheapSkate\Debug\CheapSkate.MyForm.resources
^C:\Users\Boyang\documents\visual studio 2015\Projects\CheapSkate\CheapSkate\CheapSkate.vcxproj
C:\Users\Boyang\documents\visual studio 2015\Projects\CheapSkate\CheapSkate\Debug\CheapSkate.MyForm.resources
^C:\Users\Boyang\documents\visual studio 2015\Projects\CheapSkate\CheapSkate\CheapSkate.vcxproj
C:\Users\Boyang\documents\visual studio 2015\Projects\CheapSkate\CheapSkate\Debug\CheapSkate.MyForm.resources
^C:\Users\Boyang\documents\visual studio 2015\Projects\CheapSkate\CheapSkate\CheapSkate.vcxproj
C:\Users\Boyang\documents\visual studio 2015\Projects\CheapSkate\CheapSkate\Debug\CheapSkate.MyForm.resources
^C:\Users\Boyang\documents\visual studio 2015\Projects\CheapSkate\CheapSkate\CheapSkate.vcxproj
C:\Users\Boyang\documents\visual studio 2015\Projects\CheapSkate\CheapSkate\Debug\CheapSkate.MyForm.resources
^C:\Users\Boyang\documents\visual studio 2015\Projects\CheapSkate\CheapSkate\CheapSkate.vcxproj
C:\Users\Boyang\documents\visual studio 2015\Projects\CheapSkate\CheapSkate\Debug\CheapSkate.MyForm.resources
^C:\Users\Boyang\documents\visual studio 2015\Projects\CheapSkate\CheapSkate\CheapSkate.vcxproj
C:\Users\Boyang\documents\visual studio 2015\Projects\CheapSkate\CheapSkate\Debug\CheapSkate.MyForm.resources
^C:\Users\Boyang\documents\visual studio 2015\Projects\CheapSkate\CheapSkate\CheapSkate.vcxproj
C:\Users\Boyang\documents\visual studio 2015\Projects\CheapSkate\CheapSkate\Debug\CheapSkate.MyForm.resources
^C:\Users\Boyang\documents\visual studio 2015\Projects\CheapSkate\CheapSkate\CheapSkate.vcxproj
C:\Users\Boyang\documents\visual studio 2015\Projects\CheapSkate\CheapSkate\Debug\CheapSkate.MyForm.resources
^C:\Users\Boyang\documents\visual studio 2015\Projects\CheapSkate\CheapSkate\CheapSkate.vcxproj
C:\Users\Boyang\documents\visual studio 2015\Projects\CheapSkate\CheapSkate\Debug\CheapSkate.MyForm.resources
^C:\Users\Boyang\documents\visual studio 2015\Projects\CheapSkate\CheapSkate\CheapSkate.vcxproj
C:\Users\Boyang\documents\visual studio 2015\Projects\CheapSkate\CheapSkate\Debug\CheapSkate.MyForm.resources
^C:\Users\Boyang\documents\visual studio 2015\Projects\CheapSkate\CheapSkate\CheapSkate.vcxproj
C:\Users\Boyang\documents\visual studio 2015\Projects\CheapSkate\CheapSkate\Debug\CheapSkate.MyForm.resources
^C:\Users\Boyang\documents\visual studio 2015\Projects\CheapSkate\CheapSkate\CheapSkate.vcxproj
C:\Users\Boyang\documents\visual studio 2015\Projects\CheapSkate\CheapSkate\Debug\CheapSkate.MyForm.resources
^C:\Users\Boyang\documents\visual studio 2015\Projects\CheapSkate\CheapSkate\CheapSkate.vcxproj
C:\Users\Boyang\documents\visual studio 2015\Projects\CheapSkate\CheapSkate\Debug\CheapSkate.MyForm.resources
^C:\Users\Boyang\documents\visual studio 2015\Projects\CheapSkate\CheapSkate\CheapSkate.vcxproj
C:\Users\Boyang\documents\visual studio 2015\Projects\CheapSkate\CheapSkate\Debug\CheapSkate.MyForm.resources
^C:\Users\Boyang\documents\visual studio 2015\Projects\CheapSkate\CheapSkate\CheapSkate.vcxproj
C:\Users\Boyang\documents\visual studio 2015\Projects\CheapSkate\CheapSkate\Debug\CheapSkate.MyForm.resources
^C:\Users\Boyang\documents\visual studio 2015\Projects\CheapSkate\CheapSkate\CheapSkate.vcxproj
C:\Users\Boyang\documents\visual studio 2015\Projects\CheapSkate\CheapSkate\Debug\CheapSkate.MyForm.resources
^C:\Users\Boyang\documents\visual studio 2015\Projects\CheapSkate\CheapSkate\CheapSkate.vcxproj
C:\Users\Boyang\documents\visual studio 2015\Projects\CheapSkate\CheapSkate\Debug\CheapSkate.MyForm.resources
^C:\Users\Boyang\documents\visual studio 2015\Projects\CheapSkate\CheapSkate\CheapSkate.vcxproj
C:\Users\Boyang\documents\visual studio 2015\Projects\CheapSkate\CheapSkate\Debug\CheapSkate.MyForm.resources
^C:\Users\Boyang\documents\visual studio 2015\Projects\CheapSkate\CheapSkate\CheapSkate.vcxproj
C:\Users\Boyang\documents\visual studio 2015\Projects\CheapSkate\CheapSkate\Debug\CheapSkate.MyForm.resources
^C:\Users\Boyang\documents\visual studio 2015\Projects\CheapSkate\CheapSkate\CheapSkate.vcxproj
C:\Users\Boyang\documents\visual studio 2015\Projects\CheapSkate\CheapSkate\Debug\CheapSkate.MyForm.resources
^C:\Users\Boyang\documents\visual studio 2015\Projects\CheapSkate\CheapSkate\CheapSkate.vcxproj
C:\Users\Boyang\documents\visual studio 2015\Projects\CheapSkate\CheapSkate\Debug\CheapSkate.MyForm.resources
^C:\Users\Boyang\documents\visual studio 2015\Projects\CheapSkate\CheapSkate\CheapSkate.vcxproj
C:\Users\Boyang\documents\visual studio 2015\Projects\CheapSkate\CheapSkate\Debug\CheapSkate.MyForm.resources
^C:\Users\Boyang\documents\visual studio 2015\Projects\CheapSkate\CheapSkate\CheapSkate.vcxproj
C:\Users\Boyang\documents\visual studio 2015\Projects\CheapSkate\CheapSkate\Debug\CheapSkate.MyForm.resources
^C:\Users\Boyang\documents\visual studio 2015\Projects\CheapSkate\CheapSkate\CheapSkate.vcxproj
C:\Users\Boyang\documents\visual studio 2015\Projects\CheapSkate\CheapSkate\Debug\CheapSkate.MyForm.resources
^C:\Users\Boyang\documents\visual studio 2015\Projects\CheapSkate\CheapSkate\CheapSkate.vcxproj
C:\Users\Boyang\documents\visual studio 2015\Projects\CheapSkate\CheapSkate\Debug\CheapSkate.MyForm.resources
^C:\Users\Boyang\documents\visual studio 2015\Projects\CheapSkate\CheapSkate\CheapSkate.vcxproj
C:\Users\Boyang\documents\visual studio 2015\Projects\CheapSkate\CheapSkate\Debug\CheapSkate.MyForm.resources
^C:\Users\Boyang\documents\visual studio 2015\Projects\CheapSkate\CheapSkate\CheapSkate.vcxproj
C:\Users\Boyang\documents\visual studio 2015\Projects\CheapSkate\CheapSkate\Debug\CheapSkate.MyForm.resources
^C:\Users\Boyang\documents\visual studio 2015\Projects\CheapSkate\CheapSkate\CheapSkate.vcxproj
C:\Users\Boyang\documents\visual studio 2015\Projects\CheapSkate\CheapSkate\Debug\CheapSkate.MyForm.resources
^C:\Users\Boyang\documents\visual studio 2015\Projects\CheapSkate\CheapSkate\CheapSkate.vcxproj
C:\Users\Boyang\documents\visual studio 2015\Projects\CheapSkate\CheapSkate\Debug\CheapSkate.MyForm.resources
^C:\Users\Boyang\documents\visual studio 2015\Projects\CheapSkate\CheapSkate\CheapSkate.vcxproj
C:\Users\Boyang\documents\visual studio 2015\Projects\CheapSkate\CheapSkate\Debug\CheapSkate.MyForm.resources
^C:\Users\Boyang\documents\visual studio 2015\Projects\CheapSkate\CheapSkate\CheapSkate.vcxproj
C:\Users\Boyang\documents\visual studio 2015\Projects\CheapSkate\CheapSkate\Debug\CheapSkate.MyForm.resources
^C:\Users\Boyang\documents\visual studio 2015\Projects\CheapSkate\CheapSkate\CheapSkate.vcxproj
C:\Users\Boyang\documents\visual studio 2015\Projects\CheapSkate\CheapSkate\Debug\CheapSkate.MyForm.resources
^C:\Users\Boyang\documents\visual studio 2015\Projects\CheapSkate\CheapSkate\CheapSkate.vcxproj
C:\Users\Boyang\documents\visual studio 2015\Projects\CheapSkate\CheapSkate\Debug\CheapSkate.MyForm.resources
^C:\Users\Boyang\documents\visual studio 2015\Projects\CheapSkate\CheapSkate\CheapSkate.vcxproj
C:\Users\Boyang\documents\visual studio 2015\Projects\CheapSkate\CheapSkate\Debug\CheapSkate.MyForm.resources
^C:\Users\Boyang\documents\visual studio 2015\Projects\CheapSkate\CheapSkate\CheapSkate.vcxproj
C:\Users\Boyang\documents\visual studio 2015\Projects\CheapSkate\CheapSkate\Debug\CheapSkate.MyForm.resources
^C:\Users\Boyang\documents\visual studio 2015\Projects\CheapSkate\CheapSkate\CheapSkate.vcxproj
C:\Users\Boyang\documents\visual studio 2015\Projects\CheapSkate\CheapSkate\Debug\CheapSkate.MyForm.resources
^C:\Users\Boyang\documents\visual studio 2015\Projects\CheapSkate\CheapSkate\CheapSkate.vcxproj
C:\Users\Boyang\documents\visual studio 2015\Projects\CheapSkate\CheapSkate\Debug\CheapSkate.MyForm.resources
^C:\Users\Boyang\documents\visual studio 2015\Projects\CheapSkate\CheapSkate\CheapSkate.vcxproj
C:\Users\Boyang\documents\visual studio 2015\Projects\CheapSkate\CheapSkate\Debug\CheapSkate.MyForm.resources
^C:\Users\Boyang\documents\visual studio 2015\Projects\CheapSkate\CheapSkate\CheapSkate.vcxproj
C:\Users\Boyang\documents\visual studio 2015\Projects\CheapSkate\CheapSkate\Debug\CheapSkate.MyForm.resources
^C:\Users\Boyang\documents\visual studio 2015\Projects\CheapSkate\CheapSkate\CheapSkate.vcxproj
C:\Users\Boyang\documents\visual studio 2015\Projects\CheapSkate\CheapSkate\Debug\CheapSkate.MyForm.resources
^C:\Users\Boyang\documents\visual studio 2015\Projects\CheapSkate\CheapSkate\CheapSkate.vcxproj
C:\Users\Boyang\documents\visual studio 2015\Projects\CheapSkate\CheapSkate\Debug\CheapSkate.MyForm.resources
^C:\Users\Boyang\documents\visual studio 2015\Projects\CheapSkate\CheapSkate\CheapSkate.vcxproj
C:\Users\Boyang\documents\visual studio 2015\Projects\CheapSkate\CheapSkate\Debug\CheapSkate.MyForm.resources
^C:\Users\Boyang\documents\visual studio 2015\Projects\CheapSkate\CheapSkate\CheapSkate.vcxproj
C:\Users\Boyang\documents\visual studio 2015\Projects\CheapSkate\CheapSkate\Debug\CheapSkate.MyForm.resources
^C:\Users\Boyang\documents\visual studio 2015\Projects\CheapSkate\CheapSkate\CheapSkate.vcxproj
C:\Users\Boyang\documents\visual studio 2015\Projects\CheapSkate\CheapSkate\Debug\CheapSkate.MyForm.resources
^C:\Users\Boyang\documents\visual studio 2015\Projects\CheapSkate\CheapSkate\CheapSkate.vcxproj
C:\Users\Boyang\documents\visual studio 2015\Projects\CheapSkate\CheapSkate\Debug\CheapSkate.MyForm.resources
^C:\Users\Boyang\documents\visual studio 2015\Projects\CheapSkate\CheapSkate\CheapSkate.vcxproj
C:\Users\Boyang\documents\visual studio 2015\Projects\CheapSkate\CheapSkate\Debug\CheapSkate.MyForm.resources
^C:\Users\Boyang\documents\visual studio 2015\Projects\CheapSkate\CheapSkate\CheapSkate.vcxproj
C:\Users\Boyang\documents\visual studio 2015\Projects\CheapSkate\CheapSkate\Debug\CheapSkate.MyForm.resources
^C:\Users\Boyang\documents\visual studio 2015\Projects\CheapSkate\CheapSkate\CheapSkate.vcxproj
C:\Users\Boyang\documents\visual studio 2015\Projects\CheapSkate\CheapSkate\Debug\CheapSkate.MyForm.resources
^C:\Users\Boyang\documents\visual studio 2015\Projects\CheapSkate\CheapSkate\CheapSkate.vcxproj
C:\Users\Boyang\documents\visual studio 2015\Projects\CheapSkate\CheapSkate\Debug\CheapSkate.MyForm.resources
^C:\Users\Boyang\documents\visual studio 2015\Projects\CheapSkate\CheapSkate\CheapSkate.vcxproj
C:\Users\Boyang\documents\visual studio 2015\Projects\CheapSkate\CheapSkate\Debug\CheapSkate.MyForm.resources
^C:\Users\Boyang\documents\visual studio 2015\Projects\CheapSkate\CheapSkate\CheapSkate.vcxproj
C:\Users\Boyang\documents\visual studio 2015\Projects\CheapSkate\CheapSkate\Debug\CheapSkate.MyForm.resources
^C:\Users\Boyang\documents\visual studio 2015\Projects\CheapSkate\CheapSkate\CheapSkate.vcxproj
C:\Users\Boyang\documents\visual studio 2015\Projects\CheapSkate\CheapSkate\Debug\CheapSkate.MyForm.resources
^C:\Users\Boyang\documents\visual studio 2015\Projects\CheapSkate\CheapSkate\CheapSkate.vcxproj
C:\Users\Boyang\documents\visual studio 2015\Projects\CheapSkate\CheapSkate\Debug\CheapSkate.MyForm.resources
^C:\Users\Boyang\documents\visual studio 2015\Projects\CheapSkate\CheapSkate\CheapSkate.vcxproj
C:\Users\Boyang\documents\visual studio 2015\Projects\CheapSkate\CheapSkate\Debug\CheapSkate.MyForm.resources
^C:\Users\Boyang\documents\visual studio 2015\Projects\CheapSkate\CheapSkate\CheapSkate.vcxproj
C:\Users\Boyang\documents\visual studio 2015\Projects\CheapSkate\CheapSkate\Debug\CheapSkate.MyForm.resources
^C:\Users\Boyang\documents\visual studio 2015\Projects\CheapSkate\CheapSkate\CheapSkate.vcxproj
C:\Users\Boyang\documents\visual studio 2015\Projects\CheapSkate\CheapSkate\Debug\CheapSkate.MyForm.resources
^C:\Users\Boyang\documents\visual studio 2015\Projects\CheapSkate\CheapSkate\CheapSkate.vcxproj
C:\Users\Boyang\documents\visual studio 2015\Projects\CheapSkate\CheapSkate\Debug\CheapSkate.MyForm.resources
^C:\Users\Boyang\documents\visual studio 2015\Projects\CheapSkate\CheapSkate\CheapSkate.vcxproj
C:\Users\Boyang\documents\visual studio 2015\Projects\CheapSkate\CheapSkate\Debug\CheapSkate.MyForm.resources
^C:\Users\Boyang\documents\visual studio 2015\Projects\CheapSkate\CheapSkate\CheapSkate.vcxproj
C:\Users\Boyang\documents\visual studio 2015\Projects\CheapSkate\CheapSkate\Debug\CheapSkate.MyForm.resources
^C:\Users\Boyang\documents\visual studio 2015\Projects\CheapSkate\CheapSkate\CheapSkate.vcxproj
C:\Users\Boyang\documents\visual studio 2015\Projects\CheapSkate\CheapSkate\Debug\CheapSkate.MyForm.resources
^C:\Users\Boyang\documents\visual studio 2015\Projects\CheapSkate\CheapSkate\CheapSkate.vcxproj
C:\Users\Boyang\documents\visual studio 2015\Projects\CheapSkate\CheapSkate\Debug\CheapSkate.MyForm.resources
^C:\Users\Boyang\documents\visual studio 2015\Projects\CheapSkate\CheapSkate\CheapSkate.vcxproj
C:\Users\Boyang\documents\visual studio 2015\Projects\CheapSkate\CheapSkate\Debug\CheapSkate.MyForm.resources
^C:\Users\Boyang\documents\visual studio 2015\Projects\CheapSkate\CheapSkate\CheapSkate.vcxproj
C:\Users\Boyang\documents\visual studio 2015\Projects\CheapSkate\CheapSkate\Debug\CheapSkate.MyForm.resources
^C:\Users\Boyang\documents\visual studio 2015\Projects\CheapSkate\CheapSkate\CheapSkate.vcxproj
C:\Users\Boyang\documents\visual studio 2015\Projects\CheapSkate\CheapSkate\Debug\CheapSkate.MyForm.resources
^C:\Users\Boyang\documents\visual studio 2015\Projects\CheapSkate\CheapSkate\CheapSkate.vcxproj
C:\Users\Boyang\documents\visual studio 2015\Projects\CheapSkate\CheapSkate\Debug\CheapSkate.MyForm.resources
^C:\Users\Boyang\documents\visual studio 2015\Projects\CheapSkate\CheapSkate\CheapSkate.vcxproj
C:\Users\Boyang\documents\visual studio 2015\Projects\CheapSkate\CheapSkate\Debug\CheapSkate.MyForm.resources
^C:\Users\Boyang\documents\visual studio 2015\Projects\CheapSkate\CheapSkate\CheapSkate.vcxproj
C:\Users\Boyang\documents\visual studio 2015\Projects\CheapSkate\CheapSkate\Debug\CheapSkate.MyForm.resources
^C:\Users\Boyang\documents\visual studio 2015\Projects\CheapSkate\CheapSkate\CheapSkate.vcxproj
C:\Users\Boyang\documents\visual studio 2015\Projects\CheapSkate\CheapSkate\Debug\CheapSkate.MyForm.resources
^C:\Users\Boyang\documents\visual studio 2015\Projects\CheapSkate\CheapSkate\CheapSkate.vcxproj
C:\Users\Boyang\documents\visual studio 2015\Projects\CheapSkate\CheapSkate\Debug\CheapSkate.MyForm.resources
^C:\Users\Boyang\documents\visual studio 2015\Projects\CheapSkate\CheapSkate\CheapSkate.vcxproj
C:\Users\Boyang\documents\visual studio 2015\Projects\CheapSkate\CheapSkate\Debug\CheapSkate.MyForm.resources
^C:\Users\Boyang\documents\visual studio 2015\Projects\CheapSkate\CheapSkate\CheapSkate.vcxproj
C:\Users\Boyang\documents\visual studio 2015\Projects\CheapSkate\CheapSkate\Debug\CheapSkate.MyForm.resources
^C:\Users\Boyang\documents\visual studio 2015\Projects\CheapSkate\CheapSkate\CheapSkate.vcxproj
C:\Users\Boyang\documents\visual studio 2015\Projects\CheapSkate\CheapSkate\Debug\CheapSkate.MyForm.resources
^C:\Users\Boyang\documents\visual studio 2015\Projects\CheapSkate\CheapSkate\CheapSkate.vcxproj
C:\Users\Boyang\documents\visual studio 2015\Projects\CheapSkate\CheapSkate\Debug\CheapSkate.MyForm.resources
^C:\Users\Boyang\documents\visual studio 2015\Projects\CheapSkate\CheapSkate\CheapSkate.vcxproj
C:\Users\Boyang\documents\visual studio 2015\Projects\CheapSkate\CheapSkate\Debug\CheapSkate.MyForm.resources
^C:\Users\Boyang\documents\visual studio 2015\Projects\CheapSkate\CheapSkate\CheapSkate.vcxproj
C:\Users\Boyang\documents\visual studio 2015\Projects\CheapSkate\CheapSkate\Debug\CheapSkate.MyForm.resources
C:\Users\Boyang\documents\visual studio 2015\Projects\CheapSkate\CheapSkate\Debug\CheapSkate.MyOrder.resources
^C:\Users\Boyang\documents\visual studio 2015\Projects\CheapSkate\CheapSkate\CheapSkate.vcxproj
C:\Users\Boyang\documents\visual studio 2015\Projects\CheapSkate\CheapSkate\Debug\CheapSkate.MyForm.resources
C:\Users\Boyang\documents\visual studio 2015\Projects\CheapSkate\CheapSkate\Debug\CheapSkate.MyOrder.resources
^C:\Users\Boyang\documents\visual studio 2015\Projects\CheapSkate\CheapSkate\CheapSkate.vcxproj
C:\Users\Boyang\documents\visual studio 2015\Projects\CheapSkate\CheapSkate\Debug\CheapSkate.MyForm.resources
C:\Users\Boyang\documents\visual studio 2015\Projects\CheapSkate\CheapSkate\Debug\CheapSkate.MyOrder.resources
^C:\Users\Boyang\documents\visual studio 2015\Projects\CheapSkate\CheapSkate\CheapSkate.vcxproj
C:\Users\Boyang\documents\visual studio 2015\Projects\CheapSkate\CheapSkate\Debug\CheapSkate.MyForm.resources
C:\Users\Boyang\documents\visual studio 2015\Projects\CheapSkate\CheapSkate\Debug\CheapSkate.MyOrder.resources
^C:\Users\Boyang\documents\visual studio 2015\Projects\CheapSkate\CheapSkate\CheapSkate.vcxproj
C:\Users\Boyang\documents\visual studio 2015\Projects\CheapSkate\CheapSkate\Debug\CheapSkate.MyForm.resources
C:\Users\Boyang\documents\visual studio 2015\Projects\CheapSkate\CheapSkate\Debug\CheapSkate.MyOrder.resources
^C:\Users\Boyang\documents\visual studio 2015\Projects\CheapSkate\CheapSkate\CheapSkate.vcxproj
C:\Users\Boyang\documents\visual studio 2015\Projects\CheapSkate\CheapSkate\Debug\CheapSkate.MyForm.resources
C:\Users\Boyang\documents\visual studio 2015\Projects\CheapSkate\CheapSkate\Debug\CheapSkate.MyOrder.resources
^C:\Users\Boyang\documents\visual studio 2015\Projects\CheapSkate\CheapSkate\CheapSkate.vcxproj
C:\Users\Boyang\documents\visual studio 2015\Projects\CheapSkate\CheapSkate\Debug\CheapSkate.MyForm.resources
C:\Users\Boyang\documents\visual studio 2015\Projects\CheapSkate\CheapSkate\Debug\CheapSkate.MyOrder.resources
^C:\Users\Boyang\documents\visual studio 2015\Projects\CheapSkate\CheapSkate\CheapSkate.vcxproj
C:\Users\Boyang\documents\visual studio 2015\Projects\CheapSkate\CheapSkate\Debug\CheapSkate.MyForm.resources
C:\Users\Boyang\documents\visual studio 2015\Projects\CheapSkate\CheapSkate\Debug\CheapSkate.MyOrder.resources
^C:\Users\Boyang\documents\visual studio 2015\Projects\CheapSkate\CheapSkate\CheapSkate.vcxproj
C:\Users\Boyang\documents\visual studio 2015\Projects\CheapSkate\CheapSkate\Debug\CheapSkate.MyForm.resources
C:\Users\Boyang\documents\visual studio 2015\Projects\CheapSkate\CheapSkate\Debug\CheapSkate.MyOrder.resources
^C:\Users\Boyang\documents\visual studio 2015\Projects\CheapSkate\CheapSkate\CheapSkate.vcxproj
C:\Users\Boyang\documents\visual studio 2015\Projects\CheapSkate\CheapSkate\Debug\CheapSkate.MyForm.resources
C:\Users\Boyang\documents\visual studio 2015\Projects\CheapSkate\CheapSkate\Debug\CheapSkate.MyOrder.resources
^C:\Users\Boyang\documents\visual studio 2015\Projects\CheapSkate\CheapSkate\CheapSkate.vcxproj
C:\Users\Boyang\documents\visual studio 2015\Projects\CheapSkate\CheapSkate\Debug\CheapSkate.MyForm.resources
C:\Users\Boyang\documents\visual studio 2015\Projects\CheapSkate\CheapSkate\Debug\CheapSkate.MyOrder.resources
^C:\Users\Boyang\documents\visual studio 2015\Projects\CheapSkate\CheapSkate\CheapSkate.vcxproj
C:\Users\Boyang\documents\visual studio 2015\Projects\CheapSkate\CheapSkate\Debug\CheapSkate.MyForm.resources
C:\Users\Boyang\documents\visual studio 2015\Projects\CheapSkate\CheapSkate\Debug\CheapSkate.MyOrder.resources
^C:\Users\Boyang\documents\visual studio 2015\Projects\CheapSkate\CheapSkate\CheapSkate.vcxproj
C:\Users\Boyang\documents\visual studio 2015\Projects\CheapSkate\CheapSkate\Debug\CheapSkate.MyForm.resources
C:\Users\Boyang\documents\visual studio 2015\Projects\CheapSkate\CheapSkate\Debug\CheapSkate.MyOrder.resources
^C:\Users\Boyang\documents\visual studio 2015\Projects\CheapSkate\CheapSkate\CheapSkate.vcxproj
C:\Users\Boyang\documents\visual studio 2015\Projects\CheapSkate\CheapSkate\Debug\CheapSkate.MyForm.resources
C:\Users\Boyang\documents\visual studio 2015\Projects\CheapSkate\CheapSkate\Debug\CheapSkate.MyOrder.resources
^C:\Users\Boyang\documents\visual studio 2015\Projects\CheapSkate\CheapSkate\CheapSkate.vcxproj
C:\Users\Boyang\documents\visual studio 2015\Projects\CheapSkate\CheapSkate\Debug\CheapSkate.MyForm.resources
C:\Users\Boyang\documents\visual studio 2015\Projects\CheapSkate\CheapSkate\Debug\CheapSkate.MyOrder.resources
^C:\Users\Boyang\documents\visual studio 2015\Projects\CheapSkate\CheapSkate\CheapSkate.vcxproj
C:\Users\Boyang\documents\visual studio 2015\Projects\CheapSkate\CheapSkate\Debug\CheapSkate.MyForm.resources
C:\Users\Boyang\documents\visual studio 2015\Projects\CheapSkate\CheapSkate\Debug\CheapSkate.MyOrder.resources
^C:\Users\Boyang\documents\visual studio 2015\Projects\CheapSkate\CheapSkate\CheapSkate.vcxproj
C:\Users\Boyang\documents\visual studio 2015\Projects\CheapSkate\CheapSkate\Debug\CheapSkate.MyForm.resources
C:\Users\Boyang\documents\visual studio 2015\Projects\CheapSkate\CheapSkate\Debug\CheapSkate.MyOrder.resources
^C:\Users\Boyang\documents\visual studio 2015\Projects\CheapSkate\CheapSkate\CheapSkate.vcxproj
C:\Users\Boyang\documents\visual studio 2015\Projects\CheapSkate\CheapSkate\Debug\CheapSkate.MyForm.resources
C:\Users\Boyang\documents\visual studio 2015\Projects\CheapSkate\CheapSkate\Debug\CheapSkate.MyOrder.resources
^C:\Users\Boyang\documents\visual studio 2015\Projects\CheapSkate\CheapSkate\CheapSkate.vcxproj
C:\Users\Boyang\documents\visual studio 2015\Projects\CheapSkate\CheapSkate\Debug\CheapSkate.MyForm.resources
C:\Users\Boyang\documents\visual studio 2015\Projects\CheapSkate\CheapSkate\Debug\CheapSkate.MyOrder.resources
^C:\Users\Boyang\documents\visual studio 2015\Projects\CheapSkate\CheapSkate\CheapSkate.vcxproj
C:\Users\Boyang\documents\visual studio 2015\Projects\CheapSkate\CheapSkate\Debug\CheapSkate.MyForm.resources
C:\Users\Boyang\documents\visual studio 2015\Projects\CheapSkate\CheapSkate\Debug\CheapSkate.MyOrder.resources
^C:\Users\Boyang\documents\visual studio 2015\Projects\CheapSkate\CheapSkate\CheapSkate.vcxproj
C:\Users\Boyang\documents\visual studio 2015\Projects\CheapSkate\CheapSkate\Debug\CheapSkate.MyForm.resources
C:\Users\Boyang\documents\visual studio 2015\Projects\CheapSkate\CheapSkate\Debug\CheapSkate.MyOrder.resources
^C:\Users\Boyang\documents\visual studio 2015\Projects\CheapSkate\CheapSkate\CheapSkate.vcxproj
C:\Users\Boyang\documents\visual studio 2015\Projects\CheapSkate\CheapSkate\Debug\CheapSkate.MyForm.resources
C:\Users\Boyang\documents\visual studio 2015\Projects\CheapSkate\CheapSkate\Debug\CheapSkate.MyOrder.resources
^C:\Users\Boyang\documents\visual studio 2015\Projects\CheapSkate\CheapSkate\CheapSkate.vcxproj
C:\Users\Boyang\documents\visual studio 2015\Projects\CheapSkate\CheapSkate\Debug\CheapSkate.MyForm.resources
C:\Users\Boyang\documents\visual studio 2015\Projects\CheapSkate\CheapSkate\Debug\CheapSkate.MyOrder.resources
^C:\Users\Boyang\documents\visual studio 2015\Projects\CheapSkate\CheapSkate\CheapSkate.vcxproj
C:\Users\Boyang\documents\visual studio 2015\Projects\CheapSkate\CheapSkate\Debug\CheapSkate.MyForm.resources
C:\Users\Boyang\documents\visual studio 2015\Projects\CheapSkate\CheapSkate\Debug\CheapSkate.MyOrder.resources
^C:\Users\Boyang\documents\visual studio 2015\Projects\CheapSkate\CheapSkate\CheapSkate.vcxproj
C:\Users\Boyang\documents\visual studio 2015\Projects\CheapSkate\CheapSkate\Debug\CheapSkate.MyForm.resources
C:\Users\Boyang\documents\visual studio 2015\Projects\CheapSkate\CheapSkate\Debug\CheapSkate.MyOrder.resources
^C:\Users\Boyang\documents\visual studio 2015\Projects\CheapSkate\CheapSkate\CheapSkate.vcxproj
C:\Users\Boyang\documents\visual studio 2015\Projects\CheapSkate\CheapSkate\Debug\CheapSkate.MyForm.resources
C:\Users\Boyang\documents\visual studio 2015\Projects\CheapSkate\CheapSkate\Debug\CheapSkate.MyOrder.resources
^C:\Users\Boyang\documents\visual studio 2015\Projects\CheapSkate\CheapSkate\CheapSkate.vcxproj
C:\Users\Boyang\documents\visual studio 2015\Projects\CheapSkate\CheapSkate\Debug\CheapSkate.MyForm.resources
C:\Users\Boyang\documents\visual studio 2015\Projects\CheapSkate\CheapSkate\Debug\CheapSkate.MyOrder.resources
^C:\Users\Boyang\documents\visual studio 2015\Projects\CheapSkate\CheapSkate\CheapSkate.vcxproj
C:\Users\Boyang\documents\visual studio 2015\Projects\CheapSkate\CheapSkate\Debug\CheapSkate.MyForm.resources
C:\Users\Boyang\documents\visual studio 2015\Projects\CheapSkate\CheapSkate\Debug\CheapSkate.MyOrder.resources
^C:\Users\Boyang\documents\visual studio 2015\Projects\CheapSkate\CheapSkate\CheapSkate.vcxproj
C:\Users\Boyang\documents\visual studio 2015\Projects\CheapSkate\CheapSkate\Debug\CheapSkate.MyForm.resources
C:\Users\Boyang\documents\visual studio 2015\Projects\CheapSkate\CheapSkate\Debug\CheapSkate.MyOrder.resources
^C:\Users\Boyang\documents\visual studio 2015\Projects\CheapSkate\CheapSkate\CheapSkate.vcxproj
C:\Users\Boyang\documents\visual studio 2015\Projects\CheapSkate\CheapSkate\Debug\CheapSkate.MyForm.resources
C:\Users\Boyang\documents\visual studio 2015\Projects\CheapSkate\CheapSkate\Debug\CheapSkate.MyOrder.resources
^C:\Users\Boyang\documents\visual studio 2015\Projects\CheapSkate\CheapSkate\CheapSkate.vcxproj
C:\Users\Boyang\documents\visual studio 2015\Projects\CheapSkate\CheapSkate\Debug\CheapSkate.MyForm.resources
C:\Users\Boyang\documents\visual studio 2015\Projects\CheapSkate\CheapSkate\Debug\CheapSkate.MyOrder.resources
^C:\Users\Boyang\documents\visual studio 2015\Projects\CheapSkate\CheapSkate\CheapSkate.vcxproj
C:\Users\Boyang\documents\visual studio 2015\Projects\CheapSkate\CheapSkate\Debug\CheapSkate.MyForm.resources
C:\Users\Boyang\documents\visual studio 2015\Projects\CheapSkate\CheapSkate\Debug\CheapSkate.MyOrder.resources
^C:\Users\Boyang\documents\visual studio 2015\Projects\CheapSkate\CheapSkate\CheapSkate.vcxproj
C:\Users\Boyang\documents\visual studio 2015\Projects\CheapSkate\CheapSkate\Debug\CheapSkate.MyForm.resources
C:\Users\Boyang\documents\visual studio 2015\Projects\CheapSkate\CheapSkate\Debug\CheapSkate.MyOrder.resources
^C:\Users\Boyang\documents\visual studio 2015\Projects\CheapSkate\CheapSkate\CheapSkate.vcxproj
C:\Users\Boyang\documents\visual studio 2015\Projects\CheapSkate\CheapSkate\Debug\CheapSkate.MyForm.resources
C:\Users\Boyang\documents\visual studio 2015\Projects\CheapSkate\CheapSkate\Debug\CheapSkate.MyOrder.resources
^C:\Users\Boyang\documents\visual studio 2015\Projects\CheapSkate\CheapSkate\CheapSkate.vcxproj
C:\Users\Boyang\documents\visual studio 2015\Projects\CheapSkate\CheapSkate\Debug\CheapSkate.MyForm.resources
C:\Users\Boyang\documents\visual studio 2015\Projects\CheapSkate\CheapSkate\Debug\CheapSkate.MyOrder.resources
^C:\Users\Boyang\documents\visual studio 2015\Projects\CheapSkate\CheapSkate\CheapSkate.vcxproj
C:\Users\Boyang\documents\visual studio 2015\Projects\CheapSkate\CheapSkate\Debug\CheapSkate.MyForm.resources
C:\Users\Boyang\documents\visual studio 2015\Projects\CheapSkate\CheapSkate\Debug\CheapSkate.MyOrder.resources
^C:\Users\Boyang\documents\visual studio 2015\Projects\CheapSkate\CheapSkate\CheapSkate.vcxproj
C:\Users\Boyang\documents\visual studio 2015\Projects\CheapSkate\CheapSkate\Debug\CheapSkate.MyForm.resources
C:\Users\Boyang\documents\visual studio 2015\Projects\CheapSkate\CheapSkate\Debug\CheapSkate.MyOrder.resources
^C:\Users\Boyang\documents\visual studio 2015\Projects\CheapSkate\CheapSkate\CheapSkate.vcxproj
C:\Users\Boyang\documents\visual studio 2015\Projects\CheapSkate\CheapSkate\Debug\CheapSkate.MyForm.resources
C:\Users\Boyang\documents\visual studio 2015\Projects\CheapSkate\CheapSkate\Debug\CheapSkate.MyOrder.resources
^C:\Users\Boyang\documents\visual studio 2015\Projects\CheapSkate\CheapSkate\CheapSkate.vcxproj
C:\Users\Boyang\documents\visual studio 2015\Projects\CheapSkate\CheapSkate\Debug\CheapSkate.MyForm.resources
C:\Users\Boyang\documents\visual studio 2015\Projects\CheapSkate\CheapSkate\Debug\CheapSkate.MyOrder.resources
^C:\Users\Boyang\documents\visual studio 2015\Projects\CheapSkate\CheapSkate\CheapSkate.vcxproj
C:\Users\Boyang\documents\visual studio 2015\Projects\CheapSkate\CheapSkate\Debug\CheapSkate.MyForm.resources
C:\Users\Boyang\documents\visual studio 2015\Projects\CheapSkate\CheapSkate\Debug\CheapSkate.MyOrder.resources
^C:\Users\Boyang\documents\visual studio 2015\Projects\CheapSkate\CheapSkate\CheapSkate.vcxproj
C:\Users\Boyang\documents\visual studio 2015\Projects\CheapSkate\CheapSkate\Debug\CheapSkate.MyForm.resources
C:\Users\Boyang\documents\visual studio 2015\Projects\CheapSkate\CheapSkate\Debug\CheapSkate.MyOrder.resources
^C:\Users\Boyang\documents\visual studio 2015\Projects\CheapSkate\CheapSkate\CheapSkate.vcxproj
C:\Users\Boyang\documents\visual studio 2015\Projects\CheapSkate\CheapSkate\Debug\CheapSkate.MyForm.resources
C:\Users\Boyang\documents\visual studio 2015\Projects\CheapSkate\CheapSkate\Debug\CheapSkate.MyOrder.resources
^C:\Users\Boyang\documents\visual studio 2015\Projects\CheapSkate\CheapSkate\CheapSkate.vcxproj
C:\Users\Boyang\documents\visual studio 2015\Projects\CheapSkate\CheapSkate\Debug\CheapSkate.MyForm.resources
C:\Users\Boyang\documents\visual studio 2015\Projects\CheapSkate\CheapSkate\Debug\CheapSkate.MyOrder.resources
^C:\Users\Boyang\documents\visual studio 2015\Projects\CheapSkate\CheapSkate\CheapSkate.vcxproj
C:\Users\Boyang\documents\visual studio 2015\Projects\CheapSkate\CheapSkate\Debug\CheapSkate.MyForm.resources
C:\Users\Boyang\documents\visual studio 2015\Projects\CheapSkate\CheapSkate\Debug\CheapSkate.MyOrder.resources
^C:\Users\Boyang\documents\visual studio 2015\Projects\CheapSkate\CheapSkate\CheapSkate.vcxproj
C:\Users\Boyang\documents\visual studio 2015\Projects\CheapSkate\CheapSkate\Debug\CheapSkate.MyForm.resources
C:\Users\Boyang\documents\visual studio 2015\Projects\CheapSkate\CheapSkate\Debug\CheapSkate.MyOrder.resources
^C:\Users\Boyang\documents\visual studio 2015\Projects\CheapSkate\CheapSkate\CheapSkate.vcxproj
C:\Users\Boyang\documents\visual studio 2015\Projects\CheapSkate\CheapSkate\Debug\CheapSkate.MyForm.resources
C:\Users\Boyang\documents\visual studio 2015\Projects\CheapSkate\CheapSkate\Debug\CheapSkate.MyOrder.resources
