^C:\USERS\BOYANG\DOCUMENTS\VISUAL STUDIO 2015\PROJECTS\CHEAPSKATE\CHEAPSKATE\RELEASE\.NETFRAMEWORK,VERSION=V4.5.2.ASSEMBLYATTRIBUTES.OBJ|C:\USERS\BOYANG\DOCUMENTS\VISUAL STUDIO 2015\PROJECTS\CHEAPSKATE\CHEAPSKATE\RELEASE\INVENTORY.OBJ|C:\USERS\BOYANG\DOCUMENTS\VISUAL STUDIO 2015\PROJECTS\CHEAPSKATE\CHEAPSKATE\RELEASE\MYFORM.OBJ|C:\USERS\BOYANG\DOCUMENTS\VISUAL STUDIO 2015\PROJECTS\CHEAPSKATE\CHEAPSKATE\RELEASE\MYORDER.OBJ|C:\USERS\BOYANG\DOCUMENTS\VISUAL STUDIO 2015\PROJECTS\CHEAPSKATE\CHEAPSKATE\RELEASE\ORDER.OBJ
C:\USERS\BOYANG\DOCUMENTS\VISUAL STUDIO 2015\PROJECTS\CHEAPSKATE\RELEASE\CHEAPSKATE.EXE
C:\USERS\BOYANG\DOCUMENTS\VISUAL STUDIO 2015\PROJECTS\CHEAPSKATE\RELEASE\CHEAPSKATE.PDB
